%YAML 1.1
%TAG !u! tag:unity3d.com,2011:
--- !u!1 &3569848724496938433
GameObject:
  m_ObjectHideFlags: 0
  m_CorrespondingSourceObject: {fileID: 0}
  m_PrefabInstance: {fileID: 0}
  m_PrefabAsset: {fileID: 0}
  serializedVersion: 6
  m_Component:
  - component: {fileID: 6474134906238846011}
  - component: {fileID: 3929626345521120826}
  m_Layer: 31
  m_Name: Props
  m_TagString: Untagged
  m_Icon: {fileID: 0}
  m_NavMeshLayer: 0
  m_StaticEditorFlags: 0
  m_IsActive: 1
--- !u!4 &6474134906238846011
Transform:
  m_ObjectHideFlags: 0
  m_CorrespondingSourceObject: {fileID: 0}
  m_PrefabInstance: {fileID: 0}
  m_PrefabAsset: {fileID: 0}
  m_GameObject: {fileID: 3569848724496938433}
  m_LocalRotation: {x: 0, y: 0, z: 0, w: 1}
  m_LocalPosition: {x: 0, y: 0, z: 0}
  m_LocalScale: {x: 1, y: 1, z: 1}
  m_Children:
  - {fileID: 8110730424617516580}
  m_Father: {fileID: 0}
  m_RootOrder: 0
  m_LocalEulerAnglesHint: {x: 0, y: 0, z: 0}
--- !u!156049354 &3929626345521120826
Grid:
  m_ObjectHideFlags: 0
  m_CorrespondingSourceObject: {fileID: 0}
  m_PrefabInstance: {fileID: 0}
  m_PrefabAsset: {fileID: 0}
  m_GameObject: {fileID: 3569848724496938433}
  m_Enabled: 1
  m_CellSize: {x: 2.125, y: 1.03125, z: 0}
  m_CellGap: {x: 0, y: 0, z: 0}
  m_CellLayout: 0
  m_CellSwizzle: 0
--- !u!1 &4932068111747993208
GameObject:
  m_ObjectHideFlags: 0
  m_CorrespondingSourceObject: {fileID: 0}
  m_PrefabInstance: {fileID: 0}
  m_PrefabAsset: {fileID: 0}
  serializedVersion: 6
  m_Component:
  - component: {fileID: 8110730424617516580}
  - component: {fileID: 1274162230433317135}
  - component: {fileID: 3703940086055315252}
  m_Layer: 0
  m_Name: Layer1
  m_TagString: Untagged
  m_Icon: {fileID: 0}
  m_NavMeshLayer: 0
  m_StaticEditorFlags: 0
  m_IsActive: 1
--- !u!4 &8110730424617516580
Transform:
  m_ObjectHideFlags: 0
  m_CorrespondingSourceObject: {fileID: 0}
  m_PrefabInstance: {fileID: 0}
  m_PrefabAsset: {fileID: 0}
  m_GameObject: {fileID: 4932068111747993208}
  m_LocalRotation: {x: -0, y: -0, z: -0, w: 1}
  m_LocalPosition: {x: 0, y: 0, z: 0}
  m_LocalScale: {x: 1, y: 1, z: 1}
  m_Children: []
  m_Father: {fileID: 6474134906238846011}
  m_RootOrder: 0
  m_LocalEulerAnglesHint: {x: 0, y: 0, z: 0}
--- !u!1839735485 &1274162230433317135
Tilemap:
  m_ObjectHideFlags: 0
  m_CorrespondingSourceObject: {fileID: 0}
  m_PrefabInstance: {fileID: 0}
  m_PrefabAsset: {fileID: 0}
  m_GameObject: {fileID: 4932068111747993208}
  m_Enabled: 1
  m_Tiles:
  - first: {x: -2, y: -12, z: 0}
    second:
      serializedVersion: 2
      m_TileIndex: 132
      m_TileSpriteIndex: 132
      m_TileMatrixIndex: 0
      m_TileColorIndex: 0
      m_TileObjectToInstantiateIndex: 65535
      dummyAlignment: 0
      m_AllTileFlags: 1073741825
  - first: {x: -1, y: -12, z: 0}
    second:
      serializedVersion: 2
      m_TileIndex: 133
      m_TileSpriteIndex: 133
      m_TileMatrixIndex: 0
      m_TileColorIndex: 0
      m_TileObjectToInstantiateIndex: 65535
      dummyAlignment: 0
      m_AllTileFlags: 1073741825
  - first: {x: 0, y: -12, z: 0}
    second:
      serializedVersion: 2
      m_TileIndex: 134
      m_TileSpriteIndex: 134
      m_TileMatrixIndex: 0
      m_TileColorIndex: 0
      m_TileObjectToInstantiateIndex: 65535
      dummyAlignment: 0
      m_AllTileFlags: 1073741825
  - first: {x: 1, y: -12, z: 0}
    second:
      serializedVersion: 2
      m_TileIndex: 135
      m_TileSpriteIndex: 135
      m_TileMatrixIndex: 0
      m_TileColorIndex: 0
      m_TileObjectToInstantiateIndex: 65535
      dummyAlignment: 0
      m_AllTileFlags: 1073741825
  - first: {x: 2, y: -12, z: 0}
    second:
      serializedVersion: 2
      m_TileIndex: 136
      m_TileSpriteIndex: 136
      m_TileMatrixIndex: 0
      m_TileColorIndex: 0
      m_TileObjectToInstantiateIndex: 65535
      dummyAlignment: 0
      m_AllTileFlags: 1073741825
  - first: {x: 3, y: -12, z: 0}
    second:
      serializedVersion: 2
      m_TileIndex: 137
      m_TileSpriteIndex: 137
      m_TileMatrixIndex: 0
      m_TileColorIndex: 0
      m_TileObjectToInstantiateIndex: 65535
      dummyAlignment: 0
      m_AllTileFlags: 1073741825
  - first: {x: 4, y: -12, z: 0}
    second:
      serializedVersion: 2
      m_TileIndex: 138
      m_TileSpriteIndex: 138
      m_TileMatrixIndex: 0
      m_TileColorIndex: 0
      m_TileObjectToInstantiateIndex: 65535
      dummyAlignment: 0
      m_AllTileFlags: 1073741825
  - first: {x: 5, y: -12, z: 0}
    second:
      serializedVersion: 2
      m_TileIndex: 139
      m_TileSpriteIndex: 139
      m_TileMatrixIndex: 0
      m_TileColorIndex: 0
      m_TileObjectToInstantiateIndex: 65535
      dummyAlignment: 0
      m_AllTileFlags: 1073741825
  - first: {x: 6, y: -12, z: 0}
    second:
      serializedVersion: 2
      m_TileIndex: 140
      m_TileSpriteIndex: 140
      m_TileMatrixIndex: 0
      m_TileColorIndex: 0
      m_TileObjectToInstantiateIndex: 65535
      dummyAlignment: 0
      m_AllTileFlags: 1073741825
  - first: {x: 7, y: -12, z: 0}
    second:
      serializedVersion: 2
      m_TileIndex: 141
      m_TileSpriteIndex: 141
      m_TileMatrixIndex: 0
      m_TileColorIndex: 0
      m_TileObjectToInstantiateIndex: 65535
      dummyAlignment: 0
      m_AllTileFlags: 1073741825
  - first: {x: 8, y: -12, z: 0}
    second:
      serializedVersion: 2
      m_TileIndex: 142
      m_TileSpriteIndex: 142
      m_TileMatrixIndex: 0
      m_TileColorIndex: 0
      m_TileObjectToInstantiateIndex: 65535
      dummyAlignment: 0
      m_AllTileFlags: 1073741825
  - first: {x: 9, y: -12, z: 0}
    second:
      serializedVersion: 2
      m_TileIndex: 143
      m_TileSpriteIndex: 143
      m_TileMatrixIndex: 0
      m_TileColorIndex: 0
      m_TileObjectToInstantiateIndex: 65535
      dummyAlignment: 0
      m_AllTileFlags: 1073741825
  - first: {x: -2, y: -11, z: 0}
    second:
      serializedVersion: 2
      m_TileIndex: 120
      m_TileSpriteIndex: 120
      m_TileMatrixIndex: 0
      m_TileColorIndex: 0
      m_TileObjectToInstantiateIndex: 65535
      dummyAlignment: 0
      m_AllTileFlags: 1073741825
  - first: {x: -1, y: -11, z: 0}
    second:
      serializedVersion: 2
      m_TileIndex: 121
      m_TileSpriteIndex: 121
      m_TileMatrixIndex: 0
      m_TileColorIndex: 0
      m_TileObjectToInstantiateIndex: 65535
      dummyAlignment: 0
      m_AllTileFlags: 1073741825
  - first: {x: 0, y: -11, z: 0}
    second:
      serializedVersion: 2
      m_TileIndex: 122
      m_TileSpriteIndex: 122
      m_TileMatrixIndex: 0
      m_TileColorIndex: 0
      m_TileObjectToInstantiateIndex: 65535
      dummyAlignment: 0
      m_AllTileFlags: 1073741825
  - first: {x: 1, y: -11, z: 0}
    second:
      serializedVersion: 2
      m_TileIndex: 123
      m_TileSpriteIndex: 123
      m_TileMatrixIndex: 0
      m_TileColorIndex: 0
      m_TileObjectToInstantiateIndex: 65535
      dummyAlignment: 0
      m_AllTileFlags: 1073741825
  - first: {x: 2, y: -11, z: 0}
    second:
      serializedVersion: 2
      m_TileIndex: 124
      m_TileSpriteIndex: 124
      m_TileMatrixIndex: 0
      m_TileColorIndex: 0
      m_TileObjectToInstantiateIndex: 65535
      dummyAlignment: 0
      m_AllTileFlags: 1073741825
  - first: {x: 3, y: -11, z: 0}
    second:
      serializedVersion: 2
      m_TileIndex: 125
      m_TileSpriteIndex: 125
      m_TileMatrixIndex: 0
      m_TileColorIndex: 0
      m_TileObjectToInstantiateIndex: 65535
      dummyAlignment: 0
      m_AllTileFlags: 1073741825
  - first: {x: 4, y: -11, z: 0}
    second:
      serializedVersion: 2
      m_TileIndex: 126
      m_TileSpriteIndex: 126
      m_TileMatrixIndex: 0
      m_TileColorIndex: 0
      m_TileObjectToInstantiateIndex: 65535
      dummyAlignment: 0
      m_AllTileFlags: 1073741825
  - first: {x: 5, y: -11, z: 0}
    second:
      serializedVersion: 2
      m_TileIndex: 127
      m_TileSpriteIndex: 127
      m_TileMatrixIndex: 0
      m_TileColorIndex: 0
      m_TileObjectToInstantiateIndex: 65535
      dummyAlignment: 0
      m_AllTileFlags: 1073741825
  - first: {x: 6, y: -11, z: 0}
    second:
      serializedVersion: 2
      m_TileIndex: 128
      m_TileSpriteIndex: 128
      m_TileMatrixIndex: 0
      m_TileColorIndex: 0
      m_TileObjectToInstantiateIndex: 65535
      dummyAlignment: 0
      m_AllTileFlags: 1073741825
  - first: {x: 7, y: -11, z: 0}
    second:
      serializedVersion: 2
      m_TileIndex: 129
      m_TileSpriteIndex: 129
      m_TileMatrixIndex: 0
      m_TileColorIndex: 0
      m_TileObjectToInstantiateIndex: 65535
      dummyAlignment: 0
      m_AllTileFlags: 1073741825
  - first: {x: 8, y: -11, z: 0}
    second:
      serializedVersion: 2
      m_TileIndex: 130
      m_TileSpriteIndex: 130
      m_TileMatrixIndex: 0
      m_TileColorIndex: 0
      m_TileObjectToInstantiateIndex: 65535
      dummyAlignment: 0
      m_AllTileFlags: 1073741825
  - first: {x: 9, y: -11, z: 0}
    second:
      serializedVersion: 2
      m_TileIndex: 131
      m_TileSpriteIndex: 131
      m_TileMatrixIndex: 0
      m_TileColorIndex: 0
      m_TileObjectToInstantiateIndex: 65535
      dummyAlignment: 0
      m_AllTileFlags: 1073741825
  - first: {x: -2, y: -10, z: 0}
    second:
      serializedVersion: 2
      m_TileIndex: 108
      m_TileSpriteIndex: 108
      m_TileMatrixIndex: 0
      m_TileColorIndex: 0
      m_TileObjectToInstantiateIndex: 65535
      dummyAlignment: 0
      m_AllTileFlags: 1073741825
  - first: {x: -1, y: -10, z: 0}
    second:
      serializedVersion: 2
      m_TileIndex: 109
      m_TileSpriteIndex: 109
      m_TileMatrixIndex: 0
      m_TileColorIndex: 0
      m_TileObjectToInstantiateIndex: 65535
      dummyAlignment: 0
      m_AllTileFlags: 1073741825
  - first: {x: 0, y: -10, z: 0}
    second:
      serializedVersion: 2
      m_TileIndex: 110
      m_TileSpriteIndex: 110
      m_TileMatrixIndex: 0
      m_TileColorIndex: 0
      m_TileObjectToInstantiateIndex: 65535
      dummyAlignment: 0
      m_AllTileFlags: 1073741825
  - first: {x: 1, y: -10, z: 0}
    second:
      serializedVersion: 2
      m_TileIndex: 111
      m_TileSpriteIndex: 111
      m_TileMatrixIndex: 0
      m_TileColorIndex: 0
      m_TileObjectToInstantiateIndex: 65535
      dummyAlignment: 0
      m_AllTileFlags: 1073741825
  - first: {x: 2, y: -10, z: 0}
    second:
      serializedVersion: 2
      m_TileIndex: 112
      m_TileSpriteIndex: 112
      m_TileMatrixIndex: 0
      m_TileColorIndex: 0
      m_TileObjectToInstantiateIndex: 65535
      dummyAlignment: 0
      m_AllTileFlags: 1073741825
  - first: {x: 3, y: -10, z: 0}
    second:
      serializedVersion: 2
      m_TileIndex: 113
      m_TileSpriteIndex: 113
      m_TileMatrixIndex: 0
      m_TileColorIndex: 0
      m_TileObjectToInstantiateIndex: 65535
      dummyAlignment: 0
      m_AllTileFlags: 1073741825
  - first: {x: 4, y: -10, z: 0}
    second:
      serializedVersion: 2
      m_TileIndex: 114
      m_TileSpriteIndex: 114
      m_TileMatrixIndex: 0
      m_TileColorIndex: 0
      m_TileObjectToInstantiateIndex: 65535
      dummyAlignment: 0
      m_AllTileFlags: 1073741825
  - first: {x: 5, y: -10, z: 0}
    second:
      serializedVersion: 2
      m_TileIndex: 115
      m_TileSpriteIndex: 115
      m_TileMatrixIndex: 0
      m_TileColorIndex: 0
      m_TileObjectToInstantiateIndex: 65535
      dummyAlignment: 0
      m_AllTileFlags: 1073741825
  - first: {x: 6, y: -10, z: 0}
    second:
      serializedVersion: 2
      m_TileIndex: 116
      m_TileSpriteIndex: 116
      m_TileMatrixIndex: 0
      m_TileColorIndex: 0
      m_TileObjectToInstantiateIndex: 65535
      dummyAlignment: 0
      m_AllTileFlags: 1073741825
  - first: {x: 7, y: -10, z: 0}
    second:
      serializedVersion: 2
      m_TileIndex: 117
      m_TileSpriteIndex: 117
      m_TileMatrixIndex: 0
      m_TileColorIndex: 0
      m_TileObjectToInstantiateIndex: 65535
      dummyAlignment: 0
      m_AllTileFlags: 1073741825
  - first: {x: 8, y: -10, z: 0}
    second:
      serializedVersion: 2
      m_TileIndex: 118
      m_TileSpriteIndex: 118
      m_TileMatrixIndex: 0
      m_TileColorIndex: 0
      m_TileObjectToInstantiateIndex: 65535
      dummyAlignment: 0
      m_AllTileFlags: 1073741825
  - first: {x: 9, y: -10, z: 0}
    second:
      serializedVersion: 2
      m_TileIndex: 119
      m_TileSpriteIndex: 119
      m_TileMatrixIndex: 0
      m_TileColorIndex: 0
      m_TileObjectToInstantiateIndex: 65535
      dummyAlignment: 0
      m_AllTileFlags: 1073741825
  - first: {x: -2, y: -9, z: 0}
    second:
      serializedVersion: 2
      m_TileIndex: 96
      m_TileSpriteIndex: 96
      m_TileMatrixIndex: 0
      m_TileColorIndex: 0
      m_TileObjectToInstantiateIndex: 65535
      dummyAlignment: 0
      m_AllTileFlags: 1073741825
  - first: {x: -1, y: -9, z: 0}
    second:
      serializedVersion: 2
      m_TileIndex: 97
      m_TileSpriteIndex: 97
      m_TileMatrixIndex: 0
      m_TileColorIndex: 0
      m_TileObjectToInstantiateIndex: 65535
      dummyAlignment: 0
      m_AllTileFlags: 1073741825
  - first: {x: 0, y: -9, z: 0}
    second:
      serializedVersion: 2
      m_TileIndex: 98
      m_TileSpriteIndex: 98
      m_TileMatrixIndex: 0
      m_TileColorIndex: 0
      m_TileObjectToInstantiateIndex: 65535
      dummyAlignment: 0
      m_AllTileFlags: 1073741825
  - first: {x: 1, y: -9, z: 0}
    second:
      serializedVersion: 2
      m_TileIndex: 99
      m_TileSpriteIndex: 99
      m_TileMatrixIndex: 0
      m_TileColorIndex: 0
      m_TileObjectToInstantiateIndex: 65535
      dummyAlignment: 0
      m_AllTileFlags: 1073741825
  - first: {x: 2, y: -9, z: 0}
    second:
      serializedVersion: 2
      m_TileIndex: 100
      m_TileSpriteIndex: 100
      m_TileMatrixIndex: 0
      m_TileColorIndex: 0
      m_TileObjectToInstantiateIndex: 65535
      dummyAlignment: 0
      m_AllTileFlags: 1073741825
  - first: {x: 3, y: -9, z: 0}
    second:
      serializedVersion: 2
      m_TileIndex: 101
      m_TileSpriteIndex: 101
      m_TileMatrixIndex: 0
      m_TileColorIndex: 0
      m_TileObjectToInstantiateIndex: 65535
      dummyAlignment: 0
      m_AllTileFlags: 1073741825
  - first: {x: 4, y: -9, z: 0}
    second:
      serializedVersion: 2
      m_TileIndex: 102
      m_TileSpriteIndex: 102
      m_TileMatrixIndex: 0
      m_TileColorIndex: 0
      m_TileObjectToInstantiateIndex: 65535
      dummyAlignment: 0
      m_AllTileFlags: 1073741825
  - first: {x: 5, y: -9, z: 0}
    second:
      serializedVersion: 2
      m_TileIndex: 103
      m_TileSpriteIndex: 103
      m_TileMatrixIndex: 0
      m_TileColorIndex: 0
      m_TileObjectToInstantiateIndex: 65535
      dummyAlignment: 0
      m_AllTileFlags: 1073741825
  - first: {x: 6, y: -9, z: 0}
    second:
      serializedVersion: 2
      m_TileIndex: 104
      m_TileSpriteIndex: 104
      m_TileMatrixIndex: 0
      m_TileColorIndex: 0
      m_TileObjectToInstantiateIndex: 65535
      dummyAlignment: 0
      m_AllTileFlags: 1073741825
  - first: {x: 7, y: -9, z: 0}
    second:
      serializedVersion: 2
      m_TileIndex: 105
      m_TileSpriteIndex: 105
      m_TileMatrixIndex: 0
      m_TileColorIndex: 0
      m_TileObjectToInstantiateIndex: 65535
      dummyAlignment: 0
      m_AllTileFlags: 1073741825
  - first: {x: 8, y: -9, z: 0}
    second:
      serializedVersion: 2
      m_TileIndex: 106
      m_TileSpriteIndex: 106
      m_TileMatrixIndex: 0
      m_TileColorIndex: 0
      m_TileObjectToInstantiateIndex: 65535
      dummyAlignment: 0
      m_AllTileFlags: 1073741825
  - first: {x: 9, y: -9, z: 0}
    second:
      serializedVersion: 2
      m_TileIndex: 107
      m_TileSpriteIndex: 107
      m_TileMatrixIndex: 0
      m_TileColorIndex: 0
      m_TileObjectToInstantiateIndex: 65535
      dummyAlignment: 0
      m_AllTileFlags: 1073741825
  - first: {x: -2, y: -8, z: 0}
    second:
      serializedVersion: 2
      m_TileIndex: 84
      m_TileSpriteIndex: 84
      m_TileMatrixIndex: 0
      m_TileColorIndex: 0
      m_TileObjectToInstantiateIndex: 65535
      dummyAlignment: 0
      m_AllTileFlags: 1073741825
  - first: {x: -1, y: -8, z: 0}
    second:
      serializedVersion: 2
      m_TileIndex: 85
      m_TileSpriteIndex: 85
      m_TileMatrixIndex: 0
      m_TileColorIndex: 0
      m_TileObjectToInstantiateIndex: 65535
      dummyAlignment: 0
      m_AllTileFlags: 1073741825
  - first: {x: 0, y: -8, z: 0}
    second:
      serializedVersion: 2
      m_TileIndex: 86
      m_TileSpriteIndex: 86
      m_TileMatrixIndex: 0
      m_TileColorIndex: 0
      m_TileObjectToInstantiateIndex: 65535
      dummyAlignment: 0
      m_AllTileFlags: 1073741825
  - first: {x: 1, y: -8, z: 0}
    second:
      serializedVersion: 2
      m_TileIndex: 87
      m_TileSpriteIndex: 87
      m_TileMatrixIndex: 0
      m_TileColorIndex: 0
      m_TileObjectToInstantiateIndex: 65535
      dummyAlignment: 0
      m_AllTileFlags: 1073741825
  - first: {x: 2, y: -8, z: 0}
    second:
      serializedVersion: 2
      m_TileIndex: 88
      m_TileSpriteIndex: 88
      m_TileMatrixIndex: 0
      m_TileColorIndex: 0
      m_TileObjectToInstantiateIndex: 65535
      dummyAlignment: 0
      m_AllTileFlags: 1073741825
  - first: {x: 3, y: -8, z: 0}
    second:
      serializedVersion: 2
      m_TileIndex: 89
      m_TileSpriteIndex: 89
      m_TileMatrixIndex: 0
      m_TileColorIndex: 0
      m_TileObjectToInstantiateIndex: 65535
      dummyAlignment: 0
      m_AllTileFlags: 1073741825
  - first: {x: 4, y: -8, z: 0}
    second:
      serializedVersion: 2
      m_TileIndex: 90
      m_TileSpriteIndex: 90
      m_TileMatrixIndex: 0
      m_TileColorIndex: 0
      m_TileObjectToInstantiateIndex: 65535
      dummyAlignment: 0
      m_AllTileFlags: 1073741825
  - first: {x: 5, y: -8, z: 0}
    second:
      serializedVersion: 2
      m_TileIndex: 91
      m_TileSpriteIndex: 91
      m_TileMatrixIndex: 0
      m_TileColorIndex: 0
      m_TileObjectToInstantiateIndex: 65535
      dummyAlignment: 0
      m_AllTileFlags: 1073741825
  - first: {x: 6, y: -8, z: 0}
    second:
      serializedVersion: 2
      m_TileIndex: 92
      m_TileSpriteIndex: 92
      m_TileMatrixIndex: 0
      m_TileColorIndex: 0
      m_TileObjectToInstantiateIndex: 65535
      dummyAlignment: 0
      m_AllTileFlags: 1073741825
  - first: {x: 7, y: -8, z: 0}
    second:
      serializedVersion: 2
      m_TileIndex: 93
      m_TileSpriteIndex: 93
      m_TileMatrixIndex: 0
      m_TileColorIndex: 0
      m_TileObjectToInstantiateIndex: 65535
      dummyAlignment: 0
      m_AllTileFlags: 1073741825
  - first: {x: 8, y: -8, z: 0}
    second:
      serializedVersion: 2
      m_TileIndex: 94
      m_TileSpriteIndex: 94
      m_TileMatrixIndex: 0
      m_TileColorIndex: 0
      m_TileObjectToInstantiateIndex: 65535
      dummyAlignment: 0
      m_AllTileFlags: 1073741825
  - first: {x: 9, y: -8, z: 0}
    second:
      serializedVersion: 2
      m_TileIndex: 95
      m_TileSpriteIndex: 95
      m_TileMatrixIndex: 0
      m_TileColorIndex: 0
      m_TileObjectToInstantiateIndex: 65535
      dummyAlignment: 0
      m_AllTileFlags: 1073741825
  - first: {x: -2, y: -7, z: 0}
    second:
      serializedVersion: 2
      m_TileIndex: 72
      m_TileSpriteIndex: 72
      m_TileMatrixIndex: 0
      m_TileColorIndex: 0
      m_TileObjectToInstantiateIndex: 65535
      dummyAlignment: 0
      m_AllTileFlags: 1073741825
  - first: {x: -1, y: -7, z: 0}
    second:
      serializedVersion: 2
      m_TileIndex: 73
      m_TileSpriteIndex: 73
      m_TileMatrixIndex: 0
      m_TileColorIndex: 0
      m_TileObjectToInstantiateIndex: 65535
      dummyAlignment: 0
      m_AllTileFlags: 1073741825
  - first: {x: 0, y: -7, z: 0}
    second:
      serializedVersion: 2
      m_TileIndex: 74
      m_TileSpriteIndex: 74
      m_TileMatrixIndex: 0
      m_TileColorIndex: 0
      m_TileObjectToInstantiateIndex: 65535
      dummyAlignment: 0
      m_AllTileFlags: 1073741825
  - first: {x: 1, y: -7, z: 0}
    second:
      serializedVersion: 2
      m_TileIndex: 75
      m_TileSpriteIndex: 75
      m_TileMatrixIndex: 0
      m_TileColorIndex: 0
      m_TileObjectToInstantiateIndex: 65535
      dummyAlignment: 0
      m_AllTileFlags: 1073741825
  - first: {x: 2, y: -7, z: 0}
    second:
      serializedVersion: 2
      m_TileIndex: 76
      m_TileSpriteIndex: 76
      m_TileMatrixIndex: 0
      m_TileColorIndex: 0
      m_TileObjectToInstantiateIndex: 65535
      dummyAlignment: 0
      m_AllTileFlags: 1073741825
  - first: {x: 3, y: -7, z: 0}
    second:
      serializedVersion: 2
      m_TileIndex: 77
      m_TileSpriteIndex: 77
      m_TileMatrixIndex: 0
      m_TileColorIndex: 0
      m_TileObjectToInstantiateIndex: 65535
      dummyAlignment: 0
      m_AllTileFlags: 1073741825
  - first: {x: 4, y: -7, z: 0}
    second:
      serializedVersion: 2
      m_TileIndex: 78
      m_TileSpriteIndex: 78
      m_TileMatrixIndex: 0
      m_TileColorIndex: 0
      m_TileObjectToInstantiateIndex: 65535
      dummyAlignment: 0
      m_AllTileFlags: 1073741825
  - first: {x: 5, y: -7, z: 0}
    second:
      serializedVersion: 2
      m_TileIndex: 79
      m_TileSpriteIndex: 79
      m_TileMatrixIndex: 0
      m_TileColorIndex: 0
      m_TileObjectToInstantiateIndex: 65535
      dummyAlignment: 0
      m_AllTileFlags: 1073741825
  - first: {x: 6, y: -7, z: 0}
    second:
      serializedVersion: 2
      m_TileIndex: 80
      m_TileSpriteIndex: 80
      m_TileMatrixIndex: 0
      m_TileColorIndex: 0
      m_TileObjectToInstantiateIndex: 65535
      dummyAlignment: 0
      m_AllTileFlags: 1073741825
  - first: {x: 7, y: -7, z: 0}
    second:
      serializedVersion: 2
      m_TileIndex: 81
      m_TileSpriteIndex: 81
      m_TileMatrixIndex: 0
      m_TileColorIndex: 0
      m_TileObjectToInstantiateIndex: 65535
      dummyAlignment: 0
      m_AllTileFlags: 1073741825
  - first: {x: 8, y: -7, z: 0}
    second:
      serializedVersion: 2
      m_TileIndex: 82
      m_TileSpriteIndex: 82
      m_TileMatrixIndex: 0
      m_TileColorIndex: 0
      m_TileObjectToInstantiateIndex: 65535
      dummyAlignment: 0
      m_AllTileFlags: 1073741825
  - first: {x: 9, y: -7, z: 0}
    second:
      serializedVersion: 2
      m_TileIndex: 83
      m_TileSpriteIndex: 83
      m_TileMatrixIndex: 0
      m_TileColorIndex: 0
      m_TileObjectToInstantiateIndex: 65535
      dummyAlignment: 0
      m_AllTileFlags: 1073741825
  - first: {x: -2, y: -6, z: 0}
    second:
      serializedVersion: 2
      m_TileIndex: 60
      m_TileSpriteIndex: 60
      m_TileMatrixIndex: 0
      m_TileColorIndex: 0
      m_TileObjectToInstantiateIndex: 65535
      dummyAlignment: 0
      m_AllTileFlags: 1073741825
  - first: {x: -1, y: -6, z: 0}
    second:
      serializedVersion: 2
      m_TileIndex: 61
      m_TileSpriteIndex: 61
      m_TileMatrixIndex: 0
      m_TileColorIndex: 0
      m_TileObjectToInstantiateIndex: 65535
      dummyAlignment: 0
      m_AllTileFlags: 1073741825
  - first: {x: 0, y: -6, z: 0}
    second:
      serializedVersion: 2
      m_TileIndex: 62
      m_TileSpriteIndex: 62
      m_TileMatrixIndex: 0
      m_TileColorIndex: 0
      m_TileObjectToInstantiateIndex: 65535
      dummyAlignment: 0
      m_AllTileFlags: 1073741825
  - first: {x: 1, y: -6, z: 0}
    second:
      serializedVersion: 2
      m_TileIndex: 63
      m_TileSpriteIndex: 63
      m_TileMatrixIndex: 0
      m_TileColorIndex: 0
      m_TileObjectToInstantiateIndex: 65535
      dummyAlignment: 0
      m_AllTileFlags: 1073741825
  - first: {x: 2, y: -6, z: 0}
    second:
      serializedVersion: 2
      m_TileIndex: 64
      m_TileSpriteIndex: 64
      m_TileMatrixIndex: 0
      m_TileColorIndex: 0
      m_TileObjectToInstantiateIndex: 65535
      dummyAlignment: 0
      m_AllTileFlags: 1073741825
  - first: {x: 3, y: -6, z: 0}
    second:
      serializedVersion: 2
      m_TileIndex: 65
      m_TileSpriteIndex: 65
      m_TileMatrixIndex: 0
      m_TileColorIndex: 0
      m_TileObjectToInstantiateIndex: 65535
      dummyAlignment: 0
      m_AllTileFlags: 1073741825
  - first: {x: 4, y: -6, z: 0}
    second:
      serializedVersion: 2
      m_TileIndex: 66
      m_TileSpriteIndex: 66
      m_TileMatrixIndex: 0
      m_TileColorIndex: 0
      m_TileObjectToInstantiateIndex: 65535
      dummyAlignment: 0
      m_AllTileFlags: 1073741825
  - first: {x: 5, y: -6, z: 0}
    second:
      serializedVersion: 2
      m_TileIndex: 67
      m_TileSpriteIndex: 67
      m_TileMatrixIndex: 0
      m_TileColorIndex: 0
      m_TileObjectToInstantiateIndex: 65535
      dummyAlignment: 0
      m_AllTileFlags: 1073741825
  - first: {x: 6, y: -6, z: 0}
    second:
      serializedVersion: 2
      m_TileIndex: 68
      m_TileSpriteIndex: 68
      m_TileMatrixIndex: 0
      m_TileColorIndex: 0
      m_TileObjectToInstantiateIndex: 65535
      dummyAlignment: 0
      m_AllTileFlags: 1073741825
  - first: {x: 7, y: -6, z: 0}
    second:
      serializedVersion: 2
      m_TileIndex: 69
      m_TileSpriteIndex: 69
      m_TileMatrixIndex: 0
      m_TileColorIndex: 0
      m_TileObjectToInstantiateIndex: 65535
      dummyAlignment: 0
      m_AllTileFlags: 1073741825
  - first: {x: 8, y: -6, z: 0}
    second:
      serializedVersion: 2
      m_TileIndex: 70
      m_TileSpriteIndex: 70
      m_TileMatrixIndex: 0
      m_TileColorIndex: 0
      m_TileObjectToInstantiateIndex: 65535
      dummyAlignment: 0
      m_AllTileFlags: 1073741825
  - first: {x: 9, y: -6, z: 0}
    second:
      serializedVersion: 2
      m_TileIndex: 71
      m_TileSpriteIndex: 71
      m_TileMatrixIndex: 0
      m_TileColorIndex: 0
      m_TileObjectToInstantiateIndex: 65535
      dummyAlignment: 0
      m_AllTileFlags: 1073741825
  - first: {x: -2, y: -5, z: 0}
    second:
      serializedVersion: 2
      m_TileIndex: 48
      m_TileSpriteIndex: 48
      m_TileMatrixIndex: 0
      m_TileColorIndex: 0
      m_TileObjectToInstantiateIndex: 65535
      dummyAlignment: 0
      m_AllTileFlags: 1073741825
  - first: {x: -1, y: -5, z: 0}
    second:
      serializedVersion: 2
      m_TileIndex: 49
      m_TileSpriteIndex: 49
      m_TileMatrixIndex: 0
      m_TileColorIndex: 0
      m_TileObjectToInstantiateIndex: 65535
      dummyAlignment: 0
      m_AllTileFlags: 1073741825
  - first: {x: 0, y: -5, z: 0}
    second:
      serializedVersion: 2
      m_TileIndex: 50
      m_TileSpriteIndex: 50
      m_TileMatrixIndex: 0
      m_TileColorIndex: 0
      m_TileObjectToInstantiateIndex: 65535
      dummyAlignment: 0
      m_AllTileFlags: 1073741825
  - first: {x: 1, y: -5, z: 0}
    second:
      serializedVersion: 2
      m_TileIndex: 51
      m_TileSpriteIndex: 51
      m_TileMatrixIndex: 0
      m_TileColorIndex: 0
      m_TileObjectToInstantiateIndex: 65535
      dummyAlignment: 0
      m_AllTileFlags: 1073741825
  - first: {x: 2, y: -5, z: 0}
    second:
      serializedVersion: 2
      m_TileIndex: 52
      m_TileSpriteIndex: 52
      m_TileMatrixIndex: 0
      m_TileColorIndex: 0
      m_TileObjectToInstantiateIndex: 65535
      dummyAlignment: 0
      m_AllTileFlags: 1073741825
  - first: {x: 3, y: -5, z: 0}
    second:
      serializedVersion: 2
      m_TileIndex: 53
      m_TileSpriteIndex: 53
      m_TileMatrixIndex: 0
      m_TileColorIndex: 0
      m_TileObjectToInstantiateIndex: 65535
      dummyAlignment: 0
      m_AllTileFlags: 1073741825
  - first: {x: 4, y: -5, z: 0}
    second:
      serializedVersion: 2
      m_TileIndex: 54
      m_TileSpriteIndex: 54
      m_TileMatrixIndex: 0
      m_TileColorIndex: 0
      m_TileObjectToInstantiateIndex: 65535
      dummyAlignment: 0
      m_AllTileFlags: 1073741825
  - first: {x: 5, y: -5, z: 0}
    second:
      serializedVersion: 2
      m_TileIndex: 55
      m_TileSpriteIndex: 55
      m_TileMatrixIndex: 0
      m_TileColorIndex: 0
      m_TileObjectToInstantiateIndex: 65535
      dummyAlignment: 0
      m_AllTileFlags: 1073741825
  - first: {x: 6, y: -5, z: 0}
    second:
      serializedVersion: 2
      m_TileIndex: 56
      m_TileSpriteIndex: 56
      m_TileMatrixIndex: 0
      m_TileColorIndex: 0
      m_TileObjectToInstantiateIndex: 65535
      dummyAlignment: 0
      m_AllTileFlags: 1073741825
  - first: {x: 7, y: -5, z: 0}
    second:
      serializedVersion: 2
      m_TileIndex: 57
      m_TileSpriteIndex: 57
      m_TileMatrixIndex: 0
      m_TileColorIndex: 0
      m_TileObjectToInstantiateIndex: 65535
      dummyAlignment: 0
      m_AllTileFlags: 1073741825
  - first: {x: 8, y: -5, z: 0}
    second:
      serializedVersion: 2
      m_TileIndex: 58
      m_TileSpriteIndex: 58
      m_TileMatrixIndex: 0
      m_TileColorIndex: 0
      m_TileObjectToInstantiateIndex: 65535
      dummyAlignment: 0
      m_AllTileFlags: 1073741825
  - first: {x: 9, y: -5, z: 0}
    second:
      serializedVersion: 2
      m_TileIndex: 59
      m_TileSpriteIndex: 59
      m_TileMatrixIndex: 0
      m_TileColorIndex: 0
      m_TileObjectToInstantiateIndex: 65535
      dummyAlignment: 0
      m_AllTileFlags: 1073741825
  - first: {x: -2, y: -4, z: 0}
    second:
      serializedVersion: 2
      m_TileIndex: 36
      m_TileSpriteIndex: 36
      m_TileMatrixIndex: 0
      m_TileColorIndex: 0
      m_TileObjectToInstantiateIndex: 65535
      dummyAlignment: 0
      m_AllTileFlags: 1073741825
  - first: {x: -1, y: -4, z: 0}
    second:
      serializedVersion: 2
      m_TileIndex: 37
      m_TileSpriteIndex: 37
      m_TileMatrixIndex: 0
      m_TileColorIndex: 0
      m_TileObjectToInstantiateIndex: 65535
      dummyAlignment: 0
      m_AllTileFlags: 1073741825
  - first: {x: 0, y: -4, z: 0}
    second:
      serializedVersion: 2
      m_TileIndex: 38
      m_TileSpriteIndex: 38
      m_TileMatrixIndex: 0
      m_TileColorIndex: 0
      m_TileObjectToInstantiateIndex: 65535
      dummyAlignment: 0
      m_AllTileFlags: 1073741825
  - first: {x: 1, y: -4, z: 0}
    second:
      serializedVersion: 2
      m_TileIndex: 39
      m_TileSpriteIndex: 39
      m_TileMatrixIndex: 0
      m_TileColorIndex: 0
      m_TileObjectToInstantiateIndex: 65535
      dummyAlignment: 0
      m_AllTileFlags: 1073741825
  - first: {x: 2, y: -4, z: 0}
    second:
      serializedVersion: 2
      m_TileIndex: 40
      m_TileSpriteIndex: 40
      m_TileMatrixIndex: 0
      m_TileColorIndex: 0
      m_TileObjectToInstantiateIndex: 65535
      dummyAlignment: 0
      m_AllTileFlags: 1073741825
  - first: {x: 3, y: -4, z: 0}
    second:
      serializedVersion: 2
      m_TileIndex: 41
      m_TileSpriteIndex: 41
      m_TileMatrixIndex: 0
      m_TileColorIndex: 0
      m_TileObjectToInstantiateIndex: 65535
      dummyAlignment: 0
      m_AllTileFlags: 1073741825
  - first: {x: 4, y: -4, z: 0}
    second:
      serializedVersion: 2
      m_TileIndex: 42
      m_TileSpriteIndex: 42
      m_TileMatrixIndex: 0
      m_TileColorIndex: 0
      m_TileObjectToInstantiateIndex: 65535
      dummyAlignment: 0
      m_AllTileFlags: 1073741825
  - first: {x: 5, y: -4, z: 0}
    second:
      serializedVersion: 2
      m_TileIndex: 43
      m_TileSpriteIndex: 43
      m_TileMatrixIndex: 0
      m_TileColorIndex: 0
      m_TileObjectToInstantiateIndex: 65535
      dummyAlignment: 0
      m_AllTileFlags: 1073741825
  - first: {x: 6, y: -4, z: 0}
    second:
      serializedVersion: 2
      m_TileIndex: 44
      m_TileSpriteIndex: 44
      m_TileMatrixIndex: 0
      m_TileColorIndex: 0
      m_TileObjectToInstantiateIndex: 65535
      dummyAlignment: 0
      m_AllTileFlags: 1073741825
  - first: {x: 7, y: -4, z: 0}
    second:
      serializedVersion: 2
      m_TileIndex: 45
      m_TileSpriteIndex: 45
      m_TileMatrixIndex: 0
      m_TileColorIndex: 0
      m_TileObjectToInstantiateIndex: 65535
      dummyAlignment: 0
      m_AllTileFlags: 1073741825
  - first: {x: 8, y: -4, z: 0}
    second:
      serializedVersion: 2
      m_TileIndex: 46
      m_TileSpriteIndex: 46
      m_TileMatrixIndex: 0
      m_TileColorIndex: 0
      m_TileObjectToInstantiateIndex: 65535
      dummyAlignment: 0
      m_AllTileFlags: 1073741825
  - first: {x: 9, y: -4, z: 0}
    second:
      serializedVersion: 2
      m_TileIndex: 47
      m_TileSpriteIndex: 47
      m_TileMatrixIndex: 0
      m_TileColorIndex: 0
      m_TileObjectToInstantiateIndex: 65535
      dummyAlignment: 0
      m_AllTileFlags: 1073741825
  - first: {x: -2, y: -3, z: 0}
    second:
      serializedVersion: 2
      m_TileIndex: 24
      m_TileSpriteIndex: 24
      m_TileMatrixIndex: 0
      m_TileColorIndex: 0
      m_TileObjectToInstantiateIndex: 65535
      dummyAlignment: 0
      m_AllTileFlags: 1073741825
  - first: {x: -1, y: -3, z: 0}
    second:
      serializedVersion: 2
      m_TileIndex: 25
      m_TileSpriteIndex: 25
      m_TileMatrixIndex: 0
      m_TileColorIndex: 0
      m_TileObjectToInstantiateIndex: 65535
      dummyAlignment: 0
      m_AllTileFlags: 1073741825
  - first: {x: 0, y: -3, z: 0}
    second:
      serializedVersion: 2
      m_TileIndex: 26
      m_TileSpriteIndex: 26
      m_TileMatrixIndex: 0
      m_TileColorIndex: 0
      m_TileObjectToInstantiateIndex: 65535
      dummyAlignment: 0
      m_AllTileFlags: 1073741825
  - first: {x: 1, y: -3, z: 0}
    second:
      serializedVersion: 2
      m_TileIndex: 27
      m_TileSpriteIndex: 27
      m_TileMatrixIndex: 0
      m_TileColorIndex: 0
      m_TileObjectToInstantiateIndex: 65535
      dummyAlignment: 0
      m_AllTileFlags: 1073741825
  - first: {x: 2, y: -3, z: 0}
    second:
      serializedVersion: 2
      m_TileIndex: 28
      m_TileSpriteIndex: 28
      m_TileMatrixIndex: 0
      m_TileColorIndex: 0
      m_TileObjectToInstantiateIndex: 65535
      dummyAlignment: 0
      m_AllTileFlags: 1073741825
  - first: {x: 3, y: -3, z: 0}
    second:
      serializedVersion: 2
      m_TileIndex: 29
      m_TileSpriteIndex: 29
      m_TileMatrixIndex: 0
      m_TileColorIndex: 0
      m_TileObjectToInstantiateIndex: 65535
      dummyAlignment: 0
      m_AllTileFlags: 1073741825
  - first: {x: 4, y: -3, z: 0}
    second:
      serializedVersion: 2
      m_TileIndex: 30
      m_TileSpriteIndex: 30
      m_TileMatrixIndex: 0
      m_TileColorIndex: 0
      m_TileObjectToInstantiateIndex: 65535
      dummyAlignment: 0
      m_AllTileFlags: 1073741825
  - first: {x: 5, y: -3, z: 0}
    second:
      serializedVersion: 2
      m_TileIndex: 31
      m_TileSpriteIndex: 31
      m_TileMatrixIndex: 0
      m_TileColorIndex: 0
      m_TileObjectToInstantiateIndex: 65535
      dummyAlignment: 0
      m_AllTileFlags: 1073741825
  - first: {x: 6, y: -3, z: 0}
    second:
      serializedVersion: 2
      m_TileIndex: 32
      m_TileSpriteIndex: 32
      m_TileMatrixIndex: 0
      m_TileColorIndex: 0
      m_TileObjectToInstantiateIndex: 65535
      dummyAlignment: 0
      m_AllTileFlags: 1073741825
  - first: {x: 7, y: -3, z: 0}
    second:
      serializedVersion: 2
      m_TileIndex: 33
      m_TileSpriteIndex: 33
      m_TileMatrixIndex: 0
      m_TileColorIndex: 0
      m_TileObjectToInstantiateIndex: 65535
      dummyAlignment: 0
      m_AllTileFlags: 1073741825
  - first: {x: 8, y: -3, z: 0}
    second:
      serializedVersion: 2
      m_TileIndex: 34
      m_TileSpriteIndex: 34
      m_TileMatrixIndex: 0
      m_TileColorIndex: 0
      m_TileObjectToInstantiateIndex: 65535
      dummyAlignment: 0
      m_AllTileFlags: 1073741825
  - first: {x: 9, y: -3, z: 0}
    second:
      serializedVersion: 2
      m_TileIndex: 35
      m_TileSpriteIndex: 35
      m_TileMatrixIndex: 0
      m_TileColorIndex: 0
      m_TileObjectToInstantiateIndex: 65535
      dummyAlignment: 0
      m_AllTileFlags: 1073741825
  - first: {x: -2, y: -2, z: 0}
    second:
      serializedVersion: 2
      m_TileIndex: 12
      m_TileSpriteIndex: 12
      m_TileMatrixIndex: 0
      m_TileColorIndex: 0
      m_TileObjectToInstantiateIndex: 65535
      dummyAlignment: 0
      m_AllTileFlags: 1073741825
  - first: {x: -1, y: -2, z: 0}
    second:
      serializedVersion: 2
      m_TileIndex: 13
      m_TileSpriteIndex: 13
      m_TileMatrixIndex: 0
      m_TileColorIndex: 0
      m_TileObjectToInstantiateIndex: 65535
      dummyAlignment: 0
      m_AllTileFlags: 1073741825
  - first: {x: 0, y: -2, z: 0}
    second:
      serializedVersion: 2
      m_TileIndex: 14
      m_TileSpriteIndex: 14
      m_TileMatrixIndex: 0
      m_TileColorIndex: 0
      m_TileObjectToInstantiateIndex: 65535
      dummyAlignment: 0
      m_AllTileFlags: 1073741825
  - first: {x: 1, y: -2, z: 0}
    second:
      serializedVersion: 2
      m_TileIndex: 15
      m_TileSpriteIndex: 15
      m_TileMatrixIndex: 0
      m_TileColorIndex: 0
      m_TileObjectToInstantiateIndex: 65535
      dummyAlignment: 0
      m_AllTileFlags: 1073741825
  - first: {x: 2, y: -2, z: 0}
    second:
      serializedVersion: 2
      m_TileIndex: 16
      m_TileSpriteIndex: 16
      m_TileMatrixIndex: 0
      m_TileColorIndex: 0
      m_TileObjectToInstantiateIndex: 65535
      dummyAlignment: 0
      m_AllTileFlags: 1073741825
  - first: {x: 3, y: -2, z: 0}
    second:
      serializedVersion: 2
      m_TileIndex: 17
      m_TileSpriteIndex: 17
      m_TileMatrixIndex: 0
      m_TileColorIndex: 0
      m_TileObjectToInstantiateIndex: 65535
      dummyAlignment: 0
      m_AllTileFlags: 1073741825
  - first: {x: 4, y: -2, z: 0}
    second:
      serializedVersion: 2
      m_TileIndex: 18
      m_TileSpriteIndex: 18
      m_TileMatrixIndex: 0
      m_TileColorIndex: 0
      m_TileObjectToInstantiateIndex: 65535
      dummyAlignment: 0
      m_AllTileFlags: 1073741825
  - first: {x: 5, y: -2, z: 0}
    second:
      serializedVersion: 2
      m_TileIndex: 19
      m_TileSpriteIndex: 19
      m_TileMatrixIndex: 0
      m_TileColorIndex: 0
      m_TileObjectToInstantiateIndex: 65535
      dummyAlignment: 0
      m_AllTileFlags: 1073741825
  - first: {x: 6, y: -2, z: 0}
    second:
      serializedVersion: 2
      m_TileIndex: 20
      m_TileSpriteIndex: 20
      m_TileMatrixIndex: 0
      m_TileColorIndex: 0
      m_TileObjectToInstantiateIndex: 65535
      dummyAlignment: 0
      m_AllTileFlags: 1073741825
  - first: {x: 7, y: -2, z: 0}
    second:
      serializedVersion: 2
      m_TileIndex: 21
      m_TileSpriteIndex: 21
      m_TileMatrixIndex: 0
      m_TileColorIndex: 0
      m_TileObjectToInstantiateIndex: 65535
      dummyAlignment: 0
      m_AllTileFlags: 1073741825
  - first: {x: 8, y: -2, z: 0}
    second:
      serializedVersion: 2
      m_TileIndex: 22
      m_TileSpriteIndex: 22
      m_TileMatrixIndex: 0
      m_TileColorIndex: 0
      m_TileObjectToInstantiateIndex: 65535
      dummyAlignment: 0
      m_AllTileFlags: 1073741825
  - first: {x: 9, y: -2, z: 0}
    second:
      serializedVersion: 2
      m_TileIndex: 23
      m_TileSpriteIndex: 23
      m_TileMatrixIndex: 0
      m_TileColorIndex: 0
      m_TileObjectToInstantiateIndex: 65535
      dummyAlignment: 0
      m_AllTileFlags: 1073741825
  - first: {x: -2, y: -1, z: 0}
    second:
      serializedVersion: 2
      m_TileIndex: 0
      m_TileSpriteIndex: 0
      m_TileMatrixIndex: 0
      m_TileColorIndex: 0
      m_TileObjectToInstantiateIndex: 65535
      dummyAlignment: 0
      m_AllTileFlags: 1073741825
  - first: {x: -1, y: -1, z: 0}
    second:
      serializedVersion: 2
      m_TileIndex: 1
      m_TileSpriteIndex: 1
      m_TileMatrixIndex: 0
      m_TileColorIndex: 0
      m_TileObjectToInstantiateIndex: 65535
      dummyAlignment: 0
      m_AllTileFlags: 1073741825
  - first: {x: 0, y: -1, z: 0}
    second:
      serializedVersion: 2
      m_TileIndex: 2
      m_TileSpriteIndex: 2
      m_TileMatrixIndex: 0
      m_TileColorIndex: 0
      m_TileObjectToInstantiateIndex: 65535
      dummyAlignment: 0
      m_AllTileFlags: 1073741825
  - first: {x: 1, y: -1, z: 0}
    second:
      serializedVersion: 2
      m_TileIndex: 3
      m_TileSpriteIndex: 3
      m_TileMatrixIndex: 0
      m_TileColorIndex: 0
      m_TileObjectToInstantiateIndex: 65535
      dummyAlignment: 0
      m_AllTileFlags: 1073741825
  - first: {x: 2, y: -1, z: 0}
    second:
      serializedVersion: 2
      m_TileIndex: 4
      m_TileSpriteIndex: 4
      m_TileMatrixIndex: 0
      m_TileColorIndex: 0
      m_TileObjectToInstantiateIndex: 65535
      dummyAlignment: 0
      m_AllTileFlags: 1073741825
  - first: {x: 3, y: -1, z: 0}
    second:
      serializedVersion: 2
      m_TileIndex: 5
      m_TileSpriteIndex: 5
      m_TileMatrixIndex: 0
      m_TileColorIndex: 0
      m_TileObjectToInstantiateIndex: 65535
      dummyAlignment: 0
      m_AllTileFlags: 1073741825
  - first: {x: 4, y: -1, z: 0}
    second:
      serializedVersion: 2
      m_TileIndex: 6
      m_TileSpriteIndex: 6
      m_TileMatrixIndex: 0
      m_TileColorIndex: 0
      m_TileObjectToInstantiateIndex: 65535
      dummyAlignment: 0
      m_AllTileFlags: 1073741825
  - first: {x: 5, y: -1, z: 0}
    second:
      serializedVersion: 2
      m_TileIndex: 7
      m_TileSpriteIndex: 7
      m_TileMatrixIndex: 0
      m_TileColorIndex: 0
      m_TileObjectToInstantiateIndex: 65535
      dummyAlignment: 0
      m_AllTileFlags: 1073741825
  - first: {x: 6, y: -1, z: 0}
    second:
      serializedVersion: 2
      m_TileIndex: 8
      m_TileSpriteIndex: 8
      m_TileMatrixIndex: 0
      m_TileColorIndex: 0
      m_TileObjectToInstantiateIndex: 65535
      dummyAlignment: 0
      m_AllTileFlags: 1073741825
  - first: {x: 7, y: -1, z: 0}
    second:
      serializedVersion: 2
      m_TileIndex: 9
      m_TileSpriteIndex: 9
      m_TileMatrixIndex: 0
      m_TileColorIndex: 0
      m_TileObjectToInstantiateIndex: 65535
      dummyAlignment: 0
      m_AllTileFlags: 1073741825
  - first: {x: 8, y: -1, z: 0}
    second:
      serializedVersion: 2
      m_TileIndex: 10
      m_TileSpriteIndex: 10
      m_TileMatrixIndex: 0
      m_TileColorIndex: 0
      m_TileObjectToInstantiateIndex: 65535
      dummyAlignment: 0
      m_AllTileFlags: 1073741825
  - first: {x: 9, y: -1, z: 0}
    second:
      serializedVersion: 2
      m_TileIndex: 11
      m_TileSpriteIndex: 11
      m_TileMatrixIndex: 0
      m_TileColorIndex: 0
      m_TileObjectToInstantiateIndex: 65535
      dummyAlignment: 0
      m_AllTileFlags: 1073741825
  - first: {x: 3, y: 3, z: 0}
    second:
      serializedVersion: 2
      m_TileIndex: 6
      m_TileSpriteIndex: 6
      m_TileMatrixIndex: 0
      m_TileColorIndex: 0
      m_TileObjectToInstantiateIndex: 65535
      dummyAlignment: 0
      m_AllTileFlags: 1073741825
  m_AnimatedTiles: {}
  m_TileAssetArray:
  - m_RefCount: 1
    m_Data: {fileID: 11400000, guid: a026b6490182b3840a050a13d06adc79, type: 2}
  - m_RefCount: 1
    m_Data: {fileID: 11400000, guid: e92136aa0a2bb8544bf726dab08b9669, type: 2}
  - m_RefCount: 1
    m_Data: {fileID: 11400000, guid: 3547335be545051489f0fb65e0a65e67, type: 2}
  - m_RefCount: 1
    m_Data: {fileID: 11400000, guid: 00bb86fce5b65aa47802cd26be3eb726, type: 2}
  - m_RefCount: 1
    m_Data: {fileID: 11400000, guid: 2e40a7d25a412a144b277bd77dd2f0cc, type: 2}
  - m_RefCount: 1
    m_Data: {fileID: 11400000, guid: 6f91293483d2ae149bd41b4c32388841, type: 2}
  - m_RefCount: 2
    m_Data: {fileID: 11400000, guid: 0d35f8a803de51d478cdb1005fdd5d60, type: 2}
  - m_RefCount: 1
    m_Data: {fileID: 11400000, guid: b675f33f2bb653e42a3c5e47f7a89a71, type: 2}
  - m_RefCount: 1
    m_Data: {fileID: 11400000, guid: 4e36c28ced76b5e4984b94f0f3103db3, type: 2}
  - m_RefCount: 1
    m_Data: {fileID: 11400000, guid: 4abd98639c5846f4f93c24d2419d71e8, type: 2}
  - m_RefCount: 1
    m_Data: {fileID: 11400000, guid: 72dee816fecdf914898961e7fa7ae53d, type: 2}
  - m_RefCount: 1
    m_Data: {fileID: 11400000, guid: c0a6befa1f61a0440abd584cf46ad294, type: 2}
  - m_RefCount: 1
    m_Data: {fileID: 11400000, guid: dcc124941667687419f927b887b3d74d, type: 2}
  - m_RefCount: 1
    m_Data: {fileID: 11400000, guid: 87d02b75ca6052f41a2c2cffa049c830, type: 2}
  - m_RefCount: 1
    m_Data: {fileID: 11400000, guid: 3aa01d9c2c4c3a14a86f134d6e9c0d33, type: 2}
  - m_RefCount: 1
    m_Data: {fileID: 11400000, guid: 628fd5860ea70a84ab274867e0253acc, type: 2}
  - m_RefCount: 1
    m_Data: {fileID: 11400000, guid: bae2d24a5634d1e4493ae13acd5960a9, type: 2}
  - m_RefCount: 1
    m_Data: {fileID: 11400000, guid: 594e032be60af8c4385e9fdca5d063b3, type: 2}
  - m_RefCount: 1
    m_Data: {fileID: 11400000, guid: cff54f32680e0c443bdcfd2122c7da5c, type: 2}
  - m_RefCount: 1
    m_Data: {fileID: 11400000, guid: 1f1bce35f6326d54fb57e2faebbb90c3, type: 2}
  - m_RefCount: 1
    m_Data: {fileID: 11400000, guid: cfa7cfcd000f96543a398bed49c1189b, type: 2}
  - m_RefCount: 1
    m_Data: {fileID: 11400000, guid: 75ddeb1d6d3950b4f842f0ee5bca7b1a, type: 2}
  - m_RefCount: 1
    m_Data: {fileID: 11400000, guid: bcc5c9527dd8fa443bda7c219ca1c0e6, type: 2}
  - m_RefCount: 1
    m_Data: {fileID: 11400000, guid: 9dd2d90f7a72a8e49a5c3a385ab4a597, type: 2}
  - m_RefCount: 1
    m_Data: {fileID: 11400000, guid: 294f36257b212b34b94a5341161879fa, type: 2}
  - m_RefCount: 1
    m_Data: {fileID: 11400000, guid: 1c32a1371ce5dff40839adc5e6e49a04, type: 2}
  - m_RefCount: 1
    m_Data: {fileID: 11400000, guid: 89fefb6c6fe0d8f4abbc828ef98929e2, type: 2}
  - m_RefCount: 1
    m_Data: {fileID: 11400000, guid: d940907aa3df7c7408d3fb42367714d4, type: 2}
  - m_RefCount: 1
    m_Data: {fileID: 11400000, guid: 34b6e6a19d5a0764d9cdbcc7052c4469, type: 2}
  - m_RefCount: 1
    m_Data: {fileID: 11400000, guid: 396c5f8197f75d843b27b515fdcdc996, type: 2}
  - m_RefCount: 1
    m_Data: {fileID: 11400000, guid: d6e199ed628bf0d4299ba9b57f53cf8a, type: 2}
  - m_RefCount: 1
    m_Data: {fileID: 11400000, guid: d19f0e1574611104eb8c85d950935376, type: 2}
  - m_RefCount: 1
    m_Data: {fileID: 11400000, guid: d1ad980ffc03f59439b63c959442880d, type: 2}
  - m_RefCount: 1
    m_Data: {fileID: 11400000, guid: 1730312d52f38a04e84cc929fb4134ee, type: 2}
  - m_RefCount: 1
    m_Data: {fileID: 11400000, guid: 89aca785a0121a148a297b774c9972c8, type: 2}
  - m_RefCount: 1
    m_Data: {fileID: 11400000, guid: d0c4e369996ab044cb14a161913aa83b, type: 2}
  - m_RefCount: 1
    m_Data: {fileID: 11400000, guid: af70494432e3e134a8203e14aeb52bf9, type: 2}
  - m_RefCount: 1
    m_Data: {fileID: 11400000, guid: 9c832c066824c924cbbd5ea32021d931, type: 2}
  - m_RefCount: 1
    m_Data: {fileID: 11400000, guid: fb172ca8755618a428ad30a118767ee1, type: 2}
  - m_RefCount: 1
    m_Data: {fileID: 11400000, guid: 77493f25d8727ef48b8b15b9e4c06493, type: 2}
  - m_RefCount: 1
    m_Data: {fileID: 11400000, guid: cc321e3e6466d5d409e1bbab6d9627d8, type: 2}
  - m_RefCount: 1
    m_Data: {fileID: 11400000, guid: 99f3d5257f4764b4483c57ada546c2f7, type: 2}
  - m_RefCount: 1
    m_Data: {fileID: 11400000, guid: 83ec7451eeca3e644a59bfabd84695ce, type: 2}
  - m_RefCount: 1
    m_Data: {fileID: 11400000, guid: b1a44a8c46d3d1d43b086e0b5549a1ff, type: 2}
  - m_RefCount: 1
    m_Data: {fileID: 11400000, guid: b53e02caeb09ada409492e0d1e7486cb, type: 2}
  - m_RefCount: 1
    m_Data: {fileID: 11400000, guid: 9c2f4db29d9645845840b21cc2a107ae, type: 2}
  - m_RefCount: 1
    m_Data: {fileID: 11400000, guid: e10b7cc0d47239b4faf6a4768a1096dd, type: 2}
  - m_RefCount: 1
    m_Data: {fileID: 11400000, guid: 1f5d10e0910a82043a38c8efb095d3a6, type: 2}
  - m_RefCount: 1
    m_Data: {fileID: 11400000, guid: 9681731360a6b0f46adaab003d2e3caf, type: 2}
  - m_RefCount: 1
    m_Data: {fileID: 11400000, guid: e57abc46da96024419ee0360bec1b783, type: 2}
  - m_RefCount: 1
    m_Data: {fileID: 11400000, guid: 870ad7a6dc4d91d4dab74ea34a516ddc, type: 2}
  - m_RefCount: 1
    m_Data: {fileID: 11400000, guid: db9e25318a22dbe42bc0191814ef52fb, type: 2}
  - m_RefCount: 1
    m_Data: {fileID: 11400000, guid: e21a3f490c233e94788fb252ea744f9d, type: 2}
  - m_RefCount: 1
    m_Data: {fileID: 11400000, guid: 19ac22b0b1bea7245bcd7ac32a9dfe6d, type: 2}
  - m_RefCount: 1
    m_Data: {fileID: 11400000, guid: 585f8542a0a07e741a72f16353957a4a, type: 2}
  - m_RefCount: 1
    m_Data: {fileID: 11400000, guid: f01f49afdfba1e54ab61dabdf68debdb, type: 2}
  - m_RefCount: 1
    m_Data: {fileID: 11400000, guid: 4f1b6dd17780da640b705a40e4e9c396, type: 2}
  - m_RefCount: 1
    m_Data: {fileID: 11400000, guid: 15e51becf0b6971498936f46d8ee9a0f, type: 2}
  - m_RefCount: 1
    m_Data: {fileID: 11400000, guid: eddd1700c965a4442a263c3a9f492f3b, type: 2}
  - m_RefCount: 1
    m_Data: {fileID: 11400000, guid: 69f678c21e1693d4bad8eecf1602eecb, type: 2}
  - m_RefCount: 1
    m_Data: {fileID: 11400000, guid: e0c8bb2f58e2460479ae7bb900e23e5f, type: 2}
  - m_RefCount: 1
    m_Data: {fileID: 11400000, guid: cec3ad9325ef69c48b52f3c89ab69657, type: 2}
  - m_RefCount: 1
    m_Data: {fileID: 11400000, guid: 8e96cd8708ea6f249b54d008a85ae483, type: 2}
  - m_RefCount: 1
    m_Data: {fileID: 11400000, guid: 82d06eb42a89b2740b0b7fadcd331072, type: 2}
  - m_RefCount: 1
    m_Data: {fileID: 11400000, guid: 0f2ab7ed39b511d4a99326064ae8fee4, type: 2}
  - m_RefCount: 1
    m_Data: {fileID: 11400000, guid: df6478a954e259a4e9cff5a59266fd09, type: 2}
  - m_RefCount: 1
    m_Data: {fileID: 11400000, guid: 875a66edccc1c0c448c0cf35e63bc6d5, type: 2}
  - m_RefCount: 1
    m_Data: {fileID: 11400000, guid: 7da0d9baf79cdeb46937b1c3062aaf79, type: 2}
  - m_RefCount: 1
    m_Data: {fileID: 11400000, guid: 057d2fe82ac96e541b829c69ba4fa96d, type: 2}
  - m_RefCount: 1
    m_Data: {fileID: 11400000, guid: 257610ffd0ee962458a1755a54fd72ba, type: 2}
  - m_RefCount: 1
    m_Data: {fileID: 11400000, guid: 0a6e7f81167259e45b633455b3f302f8, type: 2}
  - m_RefCount: 1
    m_Data: {fileID: 11400000, guid: 85505184f0fc7a9468c76b8317754280, type: 2}
  - m_RefCount: 1
    m_Data: {fileID: 11400000, guid: 7da3a595e11c5d84db87fb8d80b8cfc2, type: 2}
  - m_RefCount: 1
    m_Data: {fileID: 11400000, guid: bc66219402cea0a4eb540c8033702d68, type: 2}
  - m_RefCount: 1
    m_Data: {fileID: 11400000, guid: 635bfd4ff809d30409fe3d582d3ff0a0, type: 2}
  - m_RefCount: 1
    m_Data: {fileID: 11400000, guid: 3402682d71385654c8eecd9c5ef40fc9, type: 2}
  - m_RefCount: 1
    m_Data: {fileID: 11400000, guid: 864d8fd136bb2624b9570f8814e89e9d, type: 2}
  - m_RefCount: 1
    m_Data: {fileID: 11400000, guid: fa3e2e5b9e459a5438fb4d1c6f80ee45, type: 2}
  - m_RefCount: 1
    m_Data: {fileID: 11400000, guid: ea2bc2edde857624b97bee23aaeef6a2, type: 2}
  - m_RefCount: 1
    m_Data: {fileID: 11400000, guid: e04ee311805b58248a43387a0489435a, type: 2}
  - m_RefCount: 1
    m_Data: {fileID: 11400000, guid: eab6f3dba811be442b021100a17dcdc8, type: 2}
  - m_RefCount: 1
    m_Data: {fileID: 11400000, guid: f1844ac34f5a1ff449ee9f8c4f566d1c, type: 2}
  - m_RefCount: 1
    m_Data: {fileID: 11400000, guid: 7fa008446066a7b4e97dfec74b1b81da, type: 2}
  - m_RefCount: 1
    m_Data: {fileID: 11400000, guid: 3111df30f7a55374ba0478b6868a28cc, type: 2}
  - m_RefCount: 1
    m_Data: {fileID: 11400000, guid: 5fb2c10c715bbfe46ad15cb491c306fe, type: 2}
  - m_RefCount: 1
    m_Data: {fileID: 11400000, guid: c858b738da898a5499fe1d57fff5c639, type: 2}
  - m_RefCount: 1
    m_Data: {fileID: 11400000, guid: f4c93876d4bfa8c4e908ae671dfda1df, type: 2}
  - m_RefCount: 1
    m_Data: {fileID: 11400000, guid: 979118442443d3147b82b8b84ce0f6b7, type: 2}
  - m_RefCount: 1
    m_Data: {fileID: 11400000, guid: cb992499c46cb4248b4745b05cb3bf64, type: 2}
  - m_RefCount: 1
    m_Data: {fileID: 11400000, guid: b68bc23d6dda4334aafabd568b7786ba, type: 2}
  - m_RefCount: 1
    m_Data: {fileID: 11400000, guid: 14cc1818931371d4d9aa8aae520d2991, type: 2}
  - m_RefCount: 1
    m_Data: {fileID: 11400000, guid: 3406df255ef04f242b2bf14643cdd749, type: 2}
  - m_RefCount: 1
    m_Data: {fileID: 11400000, guid: 56c8a07760295e94db0093a51c4dea03, type: 2}
  - m_RefCount: 1
    m_Data: {fileID: 11400000, guid: 820bd7fa10b544c49bb9091ab751a3f3, type: 2}
  - m_RefCount: 1
    m_Data: {fileID: 11400000, guid: 461eac55bd26c3a4893c46a45c0d3bac, type: 2}
  - m_RefCount: 1
    m_Data: {fileID: 11400000, guid: 794eb61ea37a3504cb803a5eaf0e73ee, type: 2}
  - m_RefCount: 1
    m_Data: {fileID: 11400000, guid: 9b354677f31c4d94d846cb3075553a0a, type: 2}
  - m_RefCount: 1
    m_Data: {fileID: 11400000, guid: 08674323d217f254bb14cc694411edfb, type: 2}
  - m_RefCount: 1
    m_Data: {fileID: 11400000, guid: 202d0a72973019d468f1b34cda5e6b09, type: 2}
  - m_RefCount: 1
    m_Data: {fileID: 11400000, guid: 839387307e43a2345a0c9d13113e67e8, type: 2}
  - m_RefCount: 1
    m_Data: {fileID: 11400000, guid: 43ff63c68843b014996c3db2c9c65137, type: 2}
  - m_RefCount: 1
    m_Data: {fileID: 11400000, guid: e369ed4d6ed0f894b96acf4b61c0bb42, type: 2}
  - m_RefCount: 1
    m_Data: {fileID: 11400000, guid: 5b3006917dbba9444b8a302eacd122f0, type: 2}
  - m_RefCount: 1
    m_Data: {fileID: 11400000, guid: 5c6653f6e11308d4da121cb62a2cf89e, type: 2}
  - m_RefCount: 1
    m_Data: {fileID: 11400000, guid: 1166b983aaeb5214da82df79f9873968, type: 2}
  - m_RefCount: 1
    m_Data: {fileID: 11400000, guid: f1cf7aebd8026a84c975eba823d419ca, type: 2}
  - m_RefCount: 1
    m_Data: {fileID: 11400000, guid: fe0e712947bcaef4eab246d1257c8a2d, type: 2}
  - m_RefCount: 1
    m_Data: {fileID: 11400000, guid: 429ec4db1f0a72e4bba013793fe5cf1d, type: 2}
  - m_RefCount: 1
    m_Data: {fileID: 11400000, guid: 2b173b5058032bd458d7a6d085c936fa, type: 2}
  - m_RefCount: 1
    m_Data: {fileID: 11400000, guid: 7c7565220e392ed4a9765859f7156e6f, type: 2}
  - m_RefCount: 1
    m_Data: {fileID: 11400000, guid: 34c144dc252d7264faffb3e107bec838, type: 2}
  - m_RefCount: 1
    m_Data: {fileID: 11400000, guid: 6bcbfa14a7a9e8d49b65efd93675d359, type: 2}
  - m_RefCount: 1
    m_Data: {fileID: 11400000, guid: c8daa4beea50efc40ab9d429eee48768, type: 2}
  - m_RefCount: 1
    m_Data: {fileID: 11400000, guid: ccf9eb8ab3dffd74abe1f148abf0c0da, type: 2}
  - m_RefCount: 1
    m_Data: {fileID: 11400000, guid: 230834bb3fce69e4a9daaf47329a8f83, type: 2}
  - m_RefCount: 1
    m_Data: {fileID: 11400000, guid: 2bb1e35aa1fcfe04ebddda41ac27b6c5, type: 2}
  - m_RefCount: 1
    m_Data: {fileID: 11400000, guid: cd2893be223a07f42b04c0a5e228b6de, type: 2}
  - m_RefCount: 1
    m_Data: {fileID: 11400000, guid: c42b191baa3e43244a07474b2de3c155, type: 2}
  - m_RefCount: 1
    m_Data: {fileID: 11400000, guid: 0b976fb3d70f0404e839345c5237decf, type: 2}
  - m_RefCount: 1
    m_Data: {fileID: 11400000, guid: 4631276db6d807b48b42e8340524cbef, type: 2}
  - m_RefCount: 1
    m_Data: {fileID: 11400000, guid: ae67bbd58b9941b4a868c386d0a5d7e3, type: 2}
  - m_RefCount: 1
    m_Data: {fileID: 11400000, guid: 3caa245427e44284bb9f7675f9ea2dce, type: 2}
  - m_RefCount: 1
    m_Data: {fileID: 11400000, guid: 14c075cac8b54804c83904fc8a61edb0, type: 2}
  - m_RefCount: 1
    m_Data: {fileID: 11400000, guid: df623db662401ad4c95ff941afee2847, type: 2}
  - m_RefCount: 1
    m_Data: {fileID: 11400000, guid: d03e9675cbe8a094fba39c411c28a0f1, type: 2}
  - m_RefCount: 1
    m_Data: {fileID: 11400000, guid: c591dbf00c5621246aedd5a8c420b94b, type: 2}
  - m_RefCount: 1
    m_Data: {fileID: 11400000, guid: 3635340b79b59744bb7cc9e4aadf9f71, type: 2}
  - m_RefCount: 1
    m_Data: {fileID: 11400000, guid: 83c8eeac6b935cc4196dbbfaeb6b74b7, type: 2}
  - m_RefCount: 1
    m_Data: {fileID: 11400000, guid: ebd11e078caee3141aa834614eaa3761, type: 2}
  - m_RefCount: 1
    m_Data: {fileID: 11400000, guid: 9f4a12f861d929d46bf299d50aa719a5, type: 2}
  - m_RefCount: 1
    m_Data: {fileID: 11400000, guid: 34e7ed7d80a9daf4e81c4297a07120de, type: 2}
  - m_RefCount: 1
    m_Data: {fileID: 11400000, guid: 401f36c8d7c23cc41bf42c67c7057392, type: 2}
  - m_RefCount: 1
    m_Data: {fileID: 11400000, guid: 71fa6a6bcfa3d234b9702c3b7967c32b, type: 2}
  - m_RefCount: 1
    m_Data: {fileID: 11400000, guid: 1083774ec46a42442aaac693610de500, type: 2}
  - m_RefCount: 1
    m_Data: {fileID: 11400000, guid: 1f078dd874e79df4fa9dbae7450f7da3, type: 2}
  - m_RefCount: 1
    m_Data: {fileID: 11400000, guid: 9128867f0ea308140820ef7bae8973a4, type: 2}
  - m_RefCount: 1
    m_Data: {fileID: 11400000, guid: e4bf4ad5216882445bbe47c1f4bd8016, type: 2}
  - m_RefCount: 1
    m_Data: {fileID: 11400000, guid: fdd349cc96ccaf548aee5fbeeecc5d1d, type: 2}
  - m_RefCount: 1
    m_Data: {fileID: 11400000, guid: b9e955e5a1c1dca4a871406dfad03ab0, type: 2}
  - m_RefCount: 1
    m_Data: {fileID: 11400000, guid: 7539f6e0166101c44aee5f015b6f92e9, type: 2}
  - m_RefCount: 1
    m_Data: {fileID: 11400000, guid: f7a0c46e86fb5ee4f8782ec58f9362c4, type: 2}
  - m_RefCount: 1
    m_Data: {fileID: 11400000, guid: 1e90df032c57ad5429f8a716fb335dea, type: 2}
  - m_RefCount: 1
    m_Data: {fileID: 11400000, guid: 518f6fb283fcf7748b0ba1b787d79883, type: 2}
  - m_RefCount: 1
    m_Data: {fileID: 11400000, guid: e8d18b9a3b7b404418333ca5e7dce04d, type: 2}
  m_TileSpriteArray:
  - m_RefCount: 1
    m_Data: {fileID: 21300084, guid: 7810966f0f690954c87305933cabf2b0, type: 3}
  - m_RefCount: 1
    m_Data: {fileID: 21300178, guid: 7810966f0f690954c87305933cabf2b0, type: 3}
  - m_RefCount: 1
    m_Data: {fileID: 21300154, guid: 7810966f0f690954c87305933cabf2b0, type: 3}
  - m_RefCount: 1
    m_Data: {fileID: 21300156, guid: 7810966f0f690954c87305933cabf2b0, type: 3}
  - m_RefCount: 1
    m_Data: {fileID: 21300158, guid: 7810966f0f690954c87305933cabf2b0, type: 3}
  - m_RefCount: 1
    m_Data: {fileID: 21300064, guid: 7810966f0f690954c87305933cabf2b0, type: 3}
  - m_RefCount: 2
    m_Data: {fileID: 21300124, guid: 7810966f0f690954c87305933cabf2b0, type: 3}
  - m_RefCount: 1
    m_Data: {fileID: 21300122, guid: 7810966f0f690954c87305933cabf2b0, type: 3}
  - m_RefCount: 1
    m_Data: {fileID: 21300008, guid: 7810966f0f690954c87305933cabf2b0, type: 3}
  - m_RefCount: 1
    m_Data: {fileID: 21300214, guid: 7810966f0f690954c87305933cabf2b0, type: 3}
  - m_RefCount: 1
    m_Data: {fileID: 21300196, guid: 7810966f0f690954c87305933cabf2b0, type: 3}
  - m_RefCount: 1
    m_Data: {fileID: 21300052, guid: 7810966f0f690954c87305933cabf2b0, type: 3}
  - m_RefCount: 1
    m_Data: {fileID: 21300054, guid: 7810966f0f690954c87305933cabf2b0, type: 3}
  - m_RefCount: 1
    m_Data: {fileID: 21300058, guid: 7810966f0f690954c87305933cabf2b0, type: 3}
  - m_RefCount: 1
    m_Data: {fileID: 21300060, guid: 7810966f0f690954c87305933cabf2b0, type: 3}
  - m_RefCount: 1
    m_Data: {fileID: 21300056, guid: 7810966f0f690954c87305933cabf2b0, type: 3}
  - m_RefCount: 1
    m_Data: {fileID: 21300182, guid: 7810966f0f690954c87305933cabf2b0, type: 3}
  - m_RefCount: 1
    m_Data: {fileID: 21300160, guid: 7810966f0f690954c87305933cabf2b0, type: 3}
  - m_RefCount: 1
    m_Data: {fileID: 21300068, guid: 7810966f0f690954c87305933cabf2b0, type: 3}
  - m_RefCount: 1
    m_Data: {fileID: 21300110, guid: 7810966f0f690954c87305933cabf2b0, type: 3}
  - m_RefCount: 1
    m_Data: {fileID: 21300112, guid: 7810966f0f690954c87305933cabf2b0, type: 3}
  - m_RefCount: 1
    m_Data: {fileID: 21300114, guid: 7810966f0f690954c87305933cabf2b0, type: 3}
  - m_RefCount: 1
    m_Data: {fileID: 21300128, guid: 7810966f0f690954c87305933cabf2b0, type: 3}
  - m_RefCount: 1
    m_Data: {fileID: 21300198, guid: 7810966f0f690954c87305933cabf2b0, type: 3}
  - m_RefCount: 1
    m_Data: {fileID: 21300174, guid: 7810966f0f690954c87305933cabf2b0, type: 3}
  - m_RefCount: 1
    m_Data: {fileID: -2305204071527019509, guid: 7810966f0f690954c87305933cabf2b0, type: 3}
  - m_RefCount: 1
    m_Data: {fileID: 21300006, guid: 7810966f0f690954c87305933cabf2b0, type: 3}
  - m_RefCount: 1
    m_Data: {fileID: -8851566310641887263, guid: 7810966f0f690954c87305933cabf2b0, type: 3}
  - m_RefCount: 1
    m_Data: {fileID: 21300004, guid: 7810966f0f690954c87305933cabf2b0, type: 3}
  - m_RefCount: 1
    m_Data: {fileID: 21300236, guid: 7810966f0f690954c87305933cabf2b0, type: 3}
  - m_RefCount: 1
    m_Data: {fileID: 21300238, guid: 7810966f0f690954c87305933cabf2b0, type: 3}
  - m_RefCount: 1
    m_Data: {fileID: 21300240, guid: 7810966f0f690954c87305933cabf2b0, type: 3}
  - m_RefCount: 1
    m_Data: {fileID: 21300242, guid: 7810966f0f690954c87305933cabf2b0, type: 3}
  - m_RefCount: 1
    m_Data: {fileID: 21300248, guid: 7810966f0f690954c87305933cabf2b0, type: 3}
  - m_RefCount: 1
    m_Data: {fileID: 21300250, guid: 7810966f0f690954c87305933cabf2b0, type: 3}
  - m_RefCount: 1
    m_Data: {fileID: 21300252, guid: 7810966f0f690954c87305933cabf2b0, type: 3}
  - m_RefCount: 1
    m_Data: {fileID: 21300254, guid: 7810966f0f690954c87305933cabf2b0, type: 3}
  - m_RefCount: 1
    m_Data: {fileID: 21300244, guid: 7810966f0f690954c87305933cabf2b0, type: 3}
  - m_RefCount: 1
    m_Data: {fileID: 21300230, guid: 7810966f0f690954c87305933cabf2b0, type: 3}
  - m_RefCount: 1
    m_Data: {fileID: 21300232, guid: 7810966f0f690954c87305933cabf2b0, type: 3}
  - m_RefCount: 1
    m_Data: {fileID: 21300234, guid: 7810966f0f690954c87305933cabf2b0, type: 3}
  - m_RefCount: 1
    m_Data: {fileID: 21300246, guid: 7810966f0f690954c87305933cabf2b0, type: 3}
  - m_RefCount: 1
    m_Data: {fileID: 21300000, guid: 7810966f0f690954c87305933cabf2b0, type: 3}
  - m_RefCount: 1
    m_Data: {fileID: 21300002, guid: 7810966f0f690954c87305933cabf2b0, type: 3}
  - m_RefCount: 1
    m_Data: {fileID: 21300180, guid: 7810966f0f690954c87305933cabf2b0, type: 3}
  - m_RefCount: 1
    m_Data: {fileID: 21300036, guid: 7810966f0f690954c87305933cabf2b0, type: 3}
  - m_RefCount: 1
    m_Data: {fileID: 21300024, guid: 7810966f0f690954c87305933cabf2b0, type: 3}
  - m_RefCount: 1
    m_Data: {fileID: 21300026, guid: 7810966f0f690954c87305933cabf2b0, type: 3}
  - m_RefCount: 1
    m_Data: {fileID: 21300028, guid: 7810966f0f690954c87305933cabf2b0, type: 3}
  - m_RefCount: 1
    m_Data: {fileID: 21300030, guid: 7810966f0f690954c87305933cabf2b0, type: 3}
  - m_RefCount: 1
    m_Data: {fileID: 21300032, guid: 7810966f0f690954c87305933cabf2b0, type: 3}
  - m_RefCount: 1
    m_Data: {fileID: 21300034, guid: 7810966f0f690954c87305933cabf2b0, type: 3}
  - m_RefCount: 1
    m_Data: {fileID: 21300038, guid: 7810966f0f690954c87305933cabf2b0, type: 3}
  - m_RefCount: 1
    m_Data: {fileID: 21300040, guid: 7810966f0f690954c87305933cabf2b0, type: 3}
  - m_RefCount: 1
    m_Data: {fileID: 21300268, guid: 7810966f0f690954c87305933cabf2b0, type: 3}
  - m_RefCount: 1
    m_Data: {fileID: 21300100, guid: 7810966f0f690954c87305933cabf2b0, type: 3}
  - m_RefCount: 1
    m_Data: {fileID: 21300108, guid: 7810966f0f690954c87305933cabf2b0, type: 3}
  - m_RefCount: 1
    m_Data: {fileID: 21300200, guid: 7810966f0f690954c87305933cabf2b0, type: 3}
  - m_RefCount: 1
    m_Data: {fileID: 21300094, guid: 7810966f0f690954c87305933cabf2b0, type: 3}
  - m_RefCount: 1
    m_Data: {fileID: 21300096, guid: 7810966f0f690954c87305933cabf2b0, type: 3}
  - m_RefCount: 1
    m_Data: {fileID: 21300098, guid: 7810966f0f690954c87305933cabf2b0, type: 3}
  - m_RefCount: 1
    m_Data: {fileID: 21300102, guid: 7810966f0f690954c87305933cabf2b0, type: 3}
  - m_RefCount: 1
    m_Data: {fileID: 21300104, guid: 7810966f0f690954c87305933cabf2b0, type: 3}
  - m_RefCount: 1
    m_Data: {fileID: 21300106, guid: 7810966f0f690954c87305933cabf2b0, type: 3}
  - m_RefCount: 1
    m_Data: {fileID: 21300086, guid: 7810966f0f690954c87305933cabf2b0, type: 3}
  - m_RefCount: 1
    m_Data: {fileID: 21300088, guid: 7810966f0f690954c87305933cabf2b0, type: 3}
  - m_RefCount: 1
    m_Data: {fileID: 21300090, guid: 7810966f0f690954c87305933cabf2b0, type: 3}
  - m_RefCount: 1
    m_Data: {fileID: 21300092, guid: 7810966f0f690954c87305933cabf2b0, type: 3}
  - m_RefCount: 1
    m_Data: {fileID: 21300130, guid: 7810966f0f690954c87305933cabf2b0, type: 3}
  - m_RefCount: 1
    m_Data: {fileID: 21300132, guid: 7810966f0f690954c87305933cabf2b0, type: 3}
  - m_RefCount: 1
    m_Data: {fileID: 21300186, guid: 7810966f0f690954c87305933cabf2b0, type: 3}
  - m_RefCount: 1
    m_Data: {fileID: 21300192, guid: 7810966f0f690954c87305933cabf2b0, type: 3}
  - m_RefCount: 1
    m_Data: {fileID: 21300076, guid: 7810966f0f690954c87305933cabf2b0, type: 3}
  - m_RefCount: 1
    m_Data: {fileID: 21300080, guid: 7810966f0f690954c87305933cabf2b0, type: 3}
  - m_RefCount: 1
    m_Data: {fileID: 21300078, guid: 7810966f0f690954c87305933cabf2b0, type: 3}
  - m_RefCount: 1
    m_Data: {fileID: 21300168, guid: 7810966f0f690954c87305933cabf2b0, type: 3}
  - m_RefCount: 1
    m_Data: {fileID: 21300202, guid: 7810966f0f690954c87305933cabf2b0, type: 3}
  - m_RefCount: 1
    m_Data: {fileID: 21300074, guid: 7810966f0f690954c87305933cabf2b0, type: 3}
  - m_RefCount: 1
    m_Data: {fileID: 21300072, guid: 7810966f0f690954c87305933cabf2b0, type: 3}
  - m_RefCount: 1
    m_Data: {fileID: 3325885465304735478, guid: 7810966f0f690954c87305933cabf2b0, type: 3}
  - m_RefCount: 1
    m_Data: {fileID: 5803455356149086885, guid: 7810966f0f690954c87305933cabf2b0, type: 3}
  - m_RefCount: 1
    m_Data: {fileID: 9202163618114184290, guid: 7810966f0f690954c87305933cabf2b0, type: 3}
  - m_RefCount: 1
    m_Data: {fileID: -996102965649306420, guid: 7810966f0f690954c87305933cabf2b0, type: 3}
  - m_RefCount: 1
    m_Data: {fileID: -8353649271199622519, guid: 7810966f0f690954c87305933cabf2b0, type: 3}
  - m_RefCount: 1
    m_Data: {fileID: -2052889030473512461, guid: 7810966f0f690954c87305933cabf2b0, type: 3}
  - m_RefCount: 1
    m_Data: {fileID: 21300070, guid: 7810966f0f690954c87305933cabf2b0, type: 3}
  - m_RefCount: 1
    m_Data: {fileID: 21300170, guid: 7810966f0f690954c87305933cabf2b0, type: 3}
  - m_RefCount: 1
    m_Data: {fileID: -3806943691756881100, guid: 7810966f0f690954c87305933cabf2b0, type: 3}
  - m_RefCount: 1
    m_Data: {fileID: 21300220, guid: 7810966f0f690954c87305933cabf2b0, type: 3}
  - m_RefCount: 1
    m_Data: {fileID: 21300222, guid: 7810966f0f690954c87305933cabf2b0, type: 3}
  - m_RefCount: 1
    m_Data: {fileID: 21300224, guid: 7810966f0f690954c87305933cabf2b0, type: 3}
  - m_RefCount: 1
    m_Data: {fileID: 21300216, guid: 7810966f0f690954c87305933cabf2b0, type: 3}
  - m_RefCount: 1
    m_Data: {fileID: 21300218, guid: 7810966f0f690954c87305933cabf2b0, type: 3}
  - m_RefCount: 1
    m_Data: {fileID: 21300010, guid: 7810966f0f690954c87305933cabf2b0, type: 3}
  - m_RefCount: 1
    m_Data: {fileID: 21300012, guid: 7810966f0f690954c87305933cabf2b0, type: 3}
  - m_RefCount: 1
    m_Data: {fileID: 21300014, guid: 7810966f0f690954c87305933cabf2b0, type: 3}
  - m_RefCount: 1
    m_Data: {fileID: 21300256, guid: 7810966f0f690954c87305933cabf2b0, type: 3}
  - m_RefCount: 1
    m_Data: {fileID: 21300258, guid: 7810966f0f690954c87305933cabf2b0, type: 3}
  - m_RefCount: 1
    m_Data: {fileID: 21300016, guid: 7810966f0f690954c87305933cabf2b0, type: 3}
  - m_RefCount: 1
    m_Data: {fileID: 21300018, guid: 7810966f0f690954c87305933cabf2b0, type: 3}
  - m_RefCount: 1
    m_Data: {fileID: 21300020, guid: 7810966f0f690954c87305933cabf2b0, type: 3}
  - m_RefCount: 1
    m_Data: {fileID: 21300042, guid: 7810966f0f690954c87305933cabf2b0, type: 3}
  - m_RefCount: 1
    m_Data: {fileID: 21300044, guid: 7810966f0f690954c87305933cabf2b0, type: 3}
  - m_RefCount: 1
    m_Data: {fileID: 21300046, guid: 7810966f0f690954c87305933cabf2b0, type: 3}
  - m_RefCount: 1
    m_Data: {fileID: 21300048, guid: 7810966f0f690954c87305933cabf2b0, type: 3}
  - m_RefCount: 1
    m_Data: {fileID: 21300050, guid: 7810966f0f690954c87305933cabf2b0, type: 3}
  - m_RefCount: 1
    m_Data: {fileID: 21300134, guid: 7810966f0f690954c87305933cabf2b0, type: 3}
  - m_RefCount: 1
    m_Data: {fileID: 21300136, guid: 7810966f0f690954c87305933cabf2b0, type: 3}
  - m_RefCount: 1
    m_Data: {fileID: 21300138, guid: 7810966f0f690954c87305933cabf2b0, type: 3}
  - m_RefCount: 1
    m_Data: {fileID: 21300082, guid: 7810966f0f690954c87305933cabf2b0, type: 3}
  - m_RefCount: 1
    m_Data: {fileID: 21300164, guid: 7810966f0f690954c87305933cabf2b0, type: 3}
  - m_RefCount: 1
    m_Data: {fileID: 21300228, guid: 7810966f0f690954c87305933cabf2b0, type: 3}
  - m_RefCount: 1
    m_Data: {fileID: 21300260, guid: 7810966f0f690954c87305933cabf2b0, type: 3}
  - m_RefCount: 1
    m_Data: {fileID: 21300206, guid: 7810966f0f690954c87305933cabf2b0, type: 3}
  - m_RefCount: 1
    m_Data: {fileID: 21300208, guid: 7810966f0f690954c87305933cabf2b0, type: 3}
  - m_RefCount: 1
    m_Data: {fileID: 21300210, guid: 7810966f0f690954c87305933cabf2b0, type: 3}
  - m_RefCount: 1
    m_Data: {fileID: 21300212, guid: 7810966f0f690954c87305933cabf2b0, type: 3}
  - m_RefCount: 1
    m_Data: {fileID: 21300194, guid: 7810966f0f690954c87305933cabf2b0, type: 3}
  - m_RefCount: 1
    m_Data: {fileID: 21300188, guid: 7810966f0f690954c87305933cabf2b0, type: 3}
  - m_RefCount: 1
    m_Data: {fileID: 21300190, guid: 7810966f0f690954c87305933cabf2b0, type: 3}
  - m_RefCount: 1
    m_Data: {fileID: 21300150, guid: 7810966f0f690954c87305933cabf2b0, type: 3}
  - m_RefCount: 1
    m_Data: {fileID: 21300152, guid: 7810966f0f690954c87305933cabf2b0, type: 3}
  - m_RefCount: 1
    m_Data: {fileID: 21300062, guid: 7810966f0f690954c87305933cabf2b0, type: 3}
  - m_RefCount: 1
    m_Data: {fileID: 21300262, guid: 7810966f0f690954c87305933cabf2b0, type: 3}
  - m_RefCount: 1
    m_Data: {fileID: 21300264, guid: 7810966f0f690954c87305933cabf2b0, type: 3}
  - m_RefCount: 1
    m_Data: {fileID: 21300266, guid: 7810966f0f690954c87305933cabf2b0, type: 3}
  - m_RefCount: 1
    m_Data: {fileID: 21300166, guid: 7810966f0f690954c87305933cabf2b0, type: 3}
  - m_RefCount: 1
    m_Data: {fileID: 21300172, guid: 7810966f0f690954c87305933cabf2b0, type: 3}
  - m_RefCount: 1
    m_Data: {fileID: 21300022, guid: 7810966f0f690954c87305933cabf2b0, type: 3}
  - m_RefCount: 1
    m_Data: {fileID: 21300184, guid: 7810966f0f690954c87305933cabf2b0, type: 3}
  - m_RefCount: 1
    m_Data: {fileID: 21300120, guid: 7810966f0f690954c87305933cabf2b0, type: 3}
  - m_RefCount: 1
    m_Data: {fileID: 21300226, guid: 7810966f0f690954c87305933cabf2b0, type: 3}
  - m_RefCount: 1
    m_Data: {fileID: 21300162, guid: 7810966f0f690954c87305933cabf2b0, type: 3}
  - m_RefCount: 1
    m_Data: {fileID: 21300066, guid: 7810966f0f690954c87305933cabf2b0, type: 3}
  - m_RefCount: 1
    m_Data: {fileID: 21300140, guid: 7810966f0f690954c87305933cabf2b0, type: 3}
  - m_RefCount: 1
    m_Data: {fileID: 21300142, guid: 7810966f0f690954c87305933cabf2b0, type: 3}
  - m_RefCount: 1
    m_Data: {fileID: 21300144, guid: 7810966f0f690954c87305933cabf2b0, type: 3}
  - m_RefCount: 1
    m_Data: {fileID: 21300146, guid: 7810966f0f690954c87305933cabf2b0, type: 3}
  - m_RefCount: 1
    m_Data: {fileID: 21300148, guid: 7810966f0f690954c87305933cabf2b0, type: 3}
  - m_RefCount: 1
    m_Data: {fileID: 21300116, guid: 7810966f0f690954c87305933cabf2b0, type: 3}
  - m_RefCount: 1
    m_Data: {fileID: 21300118, guid: 7810966f0f690954c87305933cabf2b0, type: 3}
  - m_RefCount: 1
    m_Data: {fileID: 21300204, guid: 7810966f0f690954c87305933cabf2b0, type: 3}
  - m_RefCount: 1
    m_Data: {fileID: 21300176, guid: 7810966f0f690954c87305933cabf2b0, type: 3}
  - m_RefCount: 1
    m_Data: {fileID: 21300126, guid: 7810966f0f690954c87305933cabf2b0, type: 3}
  m_TileMatrixArray:
  - m_RefCount: 145
    m_Data:
      e00: 1
      e01: 0
      e02: 0
      e03: 0
      e10: 0
      e11: 1
      e12: 0
      e13: 0
      e20: 0
      e21: 0
      e22: 1
      e23: 0
      e30: 0
      e31: 0
      e32: 0
      e33: 1
  m_TileColorArray:
  - m_RefCount: 145
    m_Data: {r: 1, g: 1, b: 1, a: 1}
  m_TileObjectToInstantiateArray: []
  m_AnimationFrameRate: 1
  m_Color: {r: 1, g: 1, b: 1, a: 1}
  m_Origin: {x: -2, y: -12, z: 0}
  m_Size: {x: 12, y: 16, z: 1}
  m_TileAnchor: {x: 0.5, y: 0.5, z: 0}
  m_TileOrientation: 0
  m_TileOrientationMatrix:
    e00: 1
    e01: 0
    e02: 0
    e03: 0
    e10: 0
    e11: 1
    e12: 0
    e13: 0
    e20: 0
    e21: 0
    e22: 1
    e23: 0
    e30: 0
    e31: 0
    e32: 0
    e33: 1
--- !u!483693784 &3703940086055315252
TilemapRenderer:
  m_ObjectHideFlags: 0
  m_CorrespondingSourceObject: {fileID: 0}
  m_PrefabInstance: {fileID: 0}
  m_PrefabAsset: {fileID: 0}
  m_GameObject: {fileID: 4932068111747993208}
  m_Enabled: 1
  m_CastShadows: 0
  m_ReceiveShadows: 0
  m_DynamicOccludee: 0
  m_MotionVectors: 1
  m_LightProbeUsage: 0
  m_ReflectionProbeUsage: 0
  m_RayTracingMode: 0
  m_RayTraceProcedural: 0
  m_RenderingLayerMask: 1
  m_RendererPriority: 0
  m_Materials:
  - {fileID: 10754, guid: 0000000000000000f000000000000000, type: 0}
  m_StaticBatchInfo:
    firstSubMesh: 0
    subMeshCount: 0
  m_StaticBatchRoot: {fileID: 0}
  m_ProbeAnchor: {fileID: 0}
  m_LightProbeVolumeOverride: {fileID: 0}
  m_ScaleInLightmap: 1
  m_ReceiveGI: 1
  m_PreserveUVs: 0
  m_IgnoreNormalsForChartDetection: 0
  m_ImportantGI: 0
  m_StitchLightmapSeams: 1
  m_SelectedEditorRenderState: 0
  m_MinimumChartSize: 4
  m_AutoUVMaxDistance: 0.5
  m_AutoUVMaxAngle: 89
  m_LightmapParameters: {fileID: 0}
  m_SortingLayerID: 0
  m_SortingLayer: 0
  m_SortingOrder: 0
  m_ChunkSize: {x: 32, y: 32, z: 32}
  m_ChunkCullingBounds: {x: 2.0034647, y: 4.53125, z: 0}
  m_MaxChunkCount: 16
  m_MaxFrameAge: 16
  m_SortOrder: 0
  m_Mode: 0
  m_DetectChunkCullingBounds: 0
  m_MaskInteraction: 0
--- !u!114 &7815478669563871987
MonoBehaviour:
  m_ObjectHideFlags: 0
  m_CorrespondingSourceObject: {fileID: 0}
  m_PrefabInstance: {fileID: 0}
  m_PrefabAsset: {fileID: 0}
  m_GameObject: {fileID: 0}
  m_Enabled: 1
  m_EditorHideFlags: 0
  m_Script: {fileID: 12395, guid: 0000000000000000e000000000000000, type: 0}
  m_Name: Palette Settings
  m_EditorClassIdentifier: 
  cellSizing: 0
  m_TransparencySortMode: 0
  m_TransparencySortAxis: {x: 0, y: 0, z: 1}
